[
	{
		"latitude": 48.71062097899215,
		"longitude": 21.240574489816204,
		"height": 2.5
	},
	{
		"latitude": 48.713426676961575,
		"longitude": 21.23587817882164,
		"height": 2.5
	},
	{
		"latitude": 48.71397695436179,
		"longitude": 21.243011723430964,
		"height": 2.5
	},
	{
		"latitude": 48.70891538247727,
		"longitude": 21.237658865199016,
		"height": 2.5
	},
	{
		"latitude": 48.71301144254178,
		"longitude": 21.234040708584153,
		"height": 2.5
	},
	{
		"latitude": 48.70664058076844,
		"longitude": 21.24221779300591,
		"height": 2.5
	},
	{
		"latitude": 48.70666044223325,
		"longitude": 21.23673523507055,
		"height": 2.5
	},
	{
		"latitude": 48.710869007762774,
		"longitude": 21.24309366457431,
		"height": 2.5
	},
	{
		"latitude": 48.70975265271353,
		"longitude": 21.236559652031,
		"height": 2.5
	},
	{
		"latitude": 48.706132049661335,
		"longitude": 21.23383034108403,
		"height": 2.5
	},
	{
		"latitude": 48.712322851160394,
		"longitude": 21.23578909444306,
		"height": 2.5
	},
	{
		"latitude": 48.71166519102936,
		"longitude": 21.239718985366167,
		"height": 2.5
	},
	{
		"latitude": 48.710281960404124,
		"longitude": 21.244965637525773,
		"height": 2.5
	},
	{
		"latitude": 48.70808281170889,
		"longitude": 21.238407344223127,
		"height": 2.5
	},
	{
		"latitude": 48.71264947589967,
		"longitude": 21.239557651808944,
		"height": 2.5
	},
	{
		"latitude": 48.706105432031066,
		"longitude": 21.244293361335632,
		"height": 2.5
	},
	{
		"latitude": 48.70870007209944,
		"longitude": 21.24505078195136,
		"height": 2.5
	},
	{
		"latitude": 48.71422863201553,
		"longitude": 21.24101500753191,
		"height": 2.5
	},
	{
		"latitude": 48.71024201498443,
		"longitude": 21.23981631749045,
		"height": 2.5
	},
	{
		"latitude": 48.70706230047674,
		"longitude": 21.244758090952136,
		"height": 2.5
	},
	{
		"latitude": 48.70974021000617,
		"longitude": 21.244020658157552,
		"height": 2.5
	},
	{
		"latitude": 48.71318423495923,
		"longitude": 21.24386857436388,
		"height": 2.5
	},
	{
		"latitude": 48.713816893243965,
		"longitude": 21.23764900196951,
		"height": 2.5
	},
	{
		"latitude": 48.707841042554946,
		"longitude": 21.23437175834542,
		"height": 2.5
	},
	{
		"latitude": 48.70764757503376,
		"longitude": 21.24517682202576,
		"height": 2.5
	},
	{
		"latitude": 48.71383733364542,
		"longitude": 21.239454318253095,
		"height": 2.5
	},
	{
		"latitude": 48.70814861732181,
		"longitude": 21.245297273087726,
		"height": 2.5
	},
	{
		"latitude": 48.70702458063128,
		"longitude": 21.238978371446134,
		"height": 2.5
	},
	{
		"latitude": 48.7108153208646,
		"longitude": 21.2383532111531,
		"height": 2.5
	},
	{
		"latitude": 48.71021681638914,
		"longitude": 21.238929507418533,
		"height": 2.5
	},
	{
		"latitude": 48.71114546701715,
		"longitude": 21.24423815209496,
		"height": 2.5
	},
	{
		"latitude": 48.70959605218565,
		"longitude": 21.23514676990081,
		"height": 2.5
	},
	{
		"latitude": 48.71056888222452,
		"longitude": 21.24117663057518,
		"height": 2.5
	},
	{
		"latitude": 48.71147265508011,
		"longitude": 21.2360836435384,
		"height": 2.5
	},
	{
		"latitude": 48.710393332020615,
		"longitude": 21.23650263654653,
		"height": 2.5
	},
	{
		"latitude": 48.70748360179987,
		"longitude": 21.23306718941946,
		"height": 2.5
	},
	{
		"latitude": 48.709962849897195,
		"longitude": 21.23749277793667,
		"height": 2.5
	},
	{
		"latitude": 48.70658463037117,
		"longitude": 21.240279519677458,
		"height": 2.5
	},
	{
		"latitude": 48.710679498506416,
		"longitude": 21.241892609473936,
		"height": 2.5
	},
	{
		"latitude": 48.712255311700616,
		"longitude": 21.244010835880832,
		"height": 2.5
	}
]