,MACROCELLS,SMALLCELLS
0,3.4000000000000004,2.5
1,2.5,4.1000000000000005
2,4.4,2.8000000000000003
3,3.7,4.4
4,3.7,2.1
5,3.7,4.7
6,4.1000000000000005,2.0
7,3.0,5.0
8,4.6000000000000005,4.5
9,3.1,1.9000000000000001
10,1.3,1.5
11,0.1,2.4000000000000004
12,1.7000000000000002,5.0
13,2.5,3.1
14,0.7000000000000001,0.8
15,5.0,3.7
16,3.7,1.3
17,3.7,4.800000000000001
18,0.9,2.5
19,0.2,1.7000000000000002
20,3.0,4.9
21,3.4000000000000004,5.0
22,3.4000000000000004,4.0
23,2.9000000000000004,3.2
24,4.800000000000001,1.1
25,1.6,0.5
26,4.7,4.800000000000001
27,2.6,0.9
28,3.4000000000000004,4.800000000000001
29,2.4000000000000004,4.0
30,4.800000000000001,4.5
31,4.4,2.7
32,1.8,2.6
33,0.8,0.4
34,1.5,4.0
35,5.0,3.3000000000000003
36,3.4000000000000004,3.8000000000000003
37,3.6,3.0
38,2.5,5.0
39,2.1,0.8
40,3.5,1.6
41,4.9,4.0
42,1.5,4.3
43,2.9000000000000004,1.6
44,4.9,0.9
45,3.5,2.7
46,3.7,1.5
47,3.5,4.0
48,3.8000000000000003,2.6
49,3.9000000000000004,1.0
50,3.0,4.3
51,3.1,0.8
52,4.4,2.0
53,3.0,4.7
54,3.4000000000000004,1.6
55,3.7,1.2000000000000002
56,4.0,3.4000000000000004
57,2.1,2.2
58,3.0,0.8
59,1.4000000000000001,0.1
60,4.0,2.4000000000000004
61,3.6,2.1
62,0.9,1.9000000000000001
63,4.800000000000001,1.2000000000000002
64,3.0,0.8
65,1.7000000000000002,2.2
66,4.800000000000001,4.1000000000000005
67,3.6,4.1000000000000005
68,4.800000000000001,2.6
69,4.0,0.4
70,2.9000000000000004,0.4
71,3.0,2.5
72,1.3,0.2
73,3.5,2.9000000000000004
74,2.1,2.6
75,4.800000000000001,4.5
76,2.5,4.0
77,3.7,3.1
78,3.0,2.3000000000000003
79,4.800000000000001,3.3000000000000003
80,1.7000000000000002,3.4000000000000004
81,4.6000000000000005,4.0
82,3.7,4.9
83,4.7,3.6
84,2.2,4.3
85,1.7000000000000002,0.4
86,4.0,5.0
87,2.5,4.4
88,3.0,2.5
89,4.4,4.9
90,3.0,0.30000000000000004
91,2.5,3.3000000000000003
92,4.800000000000001,0.8
93,4.0,2.5
94,4.800000000000001,0.6000000000000001
95,3.0,1.5
96,3.4000000000000004,1.2000000000000002
97,0.2,4.800000000000001
98,1.3,3.2
99,3.6,2.1
100,4.4,2.7
101,3.6,2.6
102,2.5,3.2
103,5.0,0.7000000000000001
104,3.7,2.3000000000000003
105,4.800000000000001,4.800000000000001
106,4.800000000000001,2.0
107,4.7,0.30000000000000004
108,4.800000000000001,3.9000000000000004
109,0.7000000000000001,0.1
110,2.5,3.4000000000000004
111,4.0,4.4
112,2.9000000000000004,0.8
113,4.800000000000001,2.0
114,4.7,2.3000000000000003
115,4.1000000000000005,2.6
116,3.0,5.0
117,4.800000000000001,2.6
118,4.800000000000001,2.9000000000000004
119,4.800000000000001,3.9000000000000004
120,4.800000000000001,0.9
121,2.1,3.5
122,3.8000000000000003,0.2
123,2.5,4.1000000000000005
124,4.0,3.1
125,4.800000000000001,2.4000000000000004
126,1.2000000000000002,1.0
127,0.4,0.9
128,4.800000000000001,2.7
129,0.9,4.1000000000000005
130,3.5,3.6
131,1.5,4.1000000000000005
132,3.5,3.4000000000000004
133,4.4,1.1
134,3.5,2.1
135,4.800000000000001,4.4
136,4.800000000000001,1.0
137,4.800000000000001,3.1
138,4.800000000000001,0.30000000000000004
139,4.4,0.1
140,4.7,0.8
141,2.6,5.0
142,2.5,4.6000000000000005
143,3.5,4.1000000000000005
144,4.1000000000000005,2.2
145,4.800000000000001,1.1
146,3.5,2.8000000000000003
147,4.800000000000001,3.8000000000000003
148,4.4,1.6
149,3.0,4.6000000000000005
150,4.4,1.4000000000000001
151,3.7,0.1
152,4.800000000000001,3.0
153,2.6,1.6
154,3.4000000000000004,0.7000000000000001
155,4.0,3.7
156,3.5,1.2000000000000002
157,1.0,3.6
158,3.5,4.3
159,2.5,1.6
160,3.0,0.5
161,1.5,2.2
162,3.7,0.4
163,3.5,1.0
164,4.4,0.5
165,1.0,0.4
166,4.800000000000001,3.1
167,1.3,0.6000000000000001
168,1.5,3.0
169,4.800000000000001,1.4000000000000001
170,1.6,3.7
171,4.800000000000001,4.6000000000000005
172,2.5,1.5
173,4.800000000000001,0.5
174,3.5,0.5
175,4.800000000000001,4.2
176,4.4,0.5
177,4.800000000000001,0.6000000000000001
178,3.5,3.7
179,4.800000000000001,4.9
180,4.800000000000001,3.2
181,4.800000000000001,2.1
182,4.4,4.5
183,4.800000000000001,0.7000000000000001
184,4.4,0.2
185,2.2,0.5
186,3.4000000000000004,0.30000000000000004
187,4.800000000000001,1.5
188,4.2,4.7
189,4.0,0.7000000000000001
190,3.7,2.8000000000000003
191,4.4,0.4
192,4.800000000000001,0.9
193,4.800000000000001,1.2000000000000002
194,0.9,1.3
195,4.800000000000001,3.2
196,3.1,3.3000000000000003
197,4.800000000000001,2.8000000000000003
198,0.30000000000000004,4.6000000000000005
199,2.9000000000000004,0.1
200,4.2,2.6
201,4.800000000000001,3.9000000000000004
202,4.800000000000001,3.6
203,3.5,2.2
204,3.6,1.6
205,4.4,3.0
206,3.0,1.0
207,4.800000000000001,1.7000000000000002
208,4.4,1.2000000000000002
209,3.7,3.4000000000000004
210,3.1,1.6
211,3.5,3.2
212,1.3,2.9000000000000004
213,4.800000000000001,1.8
214,3.0,0.7000000000000001
215,4.800000000000001,1.2000000000000002
216,4.800000000000001,0.2
217,3.7,0.9
218,3.0,1.4000000000000001
219,3.7,1.8
220,4.0,4.1000000000000005
221,3.0,1.8
222,4.6000000000000005,3.6
223,4.800000000000001,3.7
224,4.800000000000001,3.3000000000000003
225,4.800000000000001,1.3
226,3.4000000000000004,0.5
227,3.7,2.5
228,3.7,0.1
229,1.3,2.6
230,4.800000000000001,0.6000000000000001
231,3.6,4.800000000000001
232,1.6,1.1
233,2.5,1.5
234,4.800000000000001,1.3
235,3.0,3.6
236,2.5,4.1000000000000005
237,4.4,0.5
238,4.0,3.2
239,1.6,3.7
240,4.800000000000001,1.3
241,4.800000000000001,1.0
242,4.800000000000001,0.7000000000000001
243,3.0,0.5
244,4.6000000000000005,1.3
245,3.7,0.6000000000000001
246,2.5,0.2
247,2.2,1.3
248,4.800000000000001,0.7000000000000001
249,3.5,2.9000000000000004
250,4.800000000000001,1.9000000000000001
251,3.6,5.0
252,3.5,3.6
253,4.800000000000001,4.7
254,4.800000000000001,2.1
255,3.0,2.8000000000000003
256,3.5,1.9000000000000001
257,,2.9000000000000004
